lab2turnin/des_vhdl/sim_results.vcd
$date
	Sat Oct 19 16:54:55 2019
$end
$version
	ModelSim Version 10.6a
$end
$timescale
	1ns
$end

$scope module des_cipher_top_tb $end
$var wire 1 ! clock $end
$var wire 1 " reset $end
$var wire 1 # key_in [0] $end
$var wire 1 $ key_in [1] $end
$var wire 1 % key_in [2] $end
$var wire 1 & key_in [3] $end
$var wire 1 ' key_in [4] $end
$var wire 1 ( key_in [5] $end
$var wire 1 ) key_in [6] $end
$var wire 1 * key_in [7] $end
$var wire 1 + key_in [8] $end
$var wire 1 , key_in [9] $end
$var wire 1 - key_in [10] $end
$var wire 1 . key_in [11] $end
$var wire 1 / key_in [12] $end
$var wire 1 0 key_in [13] $end
$var wire 1 1 key_in [14] $end
$var wire 1 2 key_in [15] $end
$var wire 1 3 key_in [16] $end
$var wire 1 4 key_in [17] $end
$var wire 1 5 key_in [18] $end
$var wire 1 6 key_in [19] $end
$var wire 1 7 key_in [20] $end
$var wire 1 8 key_in [21] $end
$var wire 1 9 key_in [22] $end
$var wire 1 : key_in [23] $end
$var wire 1 ; key_in [24] $end
$var wire 1 < key_in [25] $end
$var wire 1 = key_in [26] $end
$var wire 1 > key_in [27] $end
$var wire 1 ? key_in [28] $end
$var wire 1 @ key_in [29] $end
$var wire 1 A key_in [30] $end
$var wire 1 B key_in [31] $end
$var wire 1 C key_in [32] $end
$var wire 1 D key_in [33] $end
$var wire 1 E key_in [34] $end
$var wire 1 F key_in [35] $end
$var wire 1 G key_in [36] $end
$var wire 1 H key_in [37] $end
$var wire 1 I key_in [38] $end
$var wire 1 J key_in [39] $end
$var wire 1 K key_in [40] $end
$var wire 1 L key_in [41] $end
$var wire 1 M key_in [42] $end
$var wire 1 N key_in [43] $end
$var wire 1 O key_in [44] $end
$var wire 1 P key_in [45] $end
$var wire 1 Q key_in [46] $end
$var wire 1 R key_in [47] $end
$var wire 1 S key_in [48] $end
$var wire 1 T key_in [49] $end
$var wire 1 U key_in [50] $end
$var wire 1 V key_in [51] $end
$var wire 1 W key_in [52] $end
$var wire 1 X key_in [53] $end
$var wire 1 Y key_in [54] $end
$var wire 1 Z key_in [55] $end
$var wire 1 [ key_in [56] $end
$var wire 1 \ key_in [57] $end
$var wire 1 ] key_in [58] $end
$var wire 1 ^ key_in [59] $end
$var wire 1 _ key_in [60] $end
$var wire 1 ` key_in [61] $end
$var wire 1 a key_in [62] $end
$var wire 1 b key_in [63] $end
$var wire 1 c data_in [0] $end
$var wire 1 d data_in [1] $end
$var wire 1 e data_in [2] $end
$var wire 1 f data_in [3] $end
$var wire 1 g data_in [4] $end
$var wire 1 h data_in [5] $end
$var wire 1 i data_in [6] $end
$var wire 1 j data_in [7] $end
$var wire 1 k data_in [8] $end
$var wire 1 l data_in [9] $end
$var wire 1 m data_in [10] $end
$var wire 1 n data_in [11] $end
$var wire 1 o data_in [12] $end
$var wire 1 p data_in [13] $end
$var wire 1 q data_in [14] $end
$var wire 1 r data_in [15] $end
$var wire 1 s data_in [16] $end
$var wire 1 t data_in [17] $end
$var wire 1 u data_in [18] $end
$var wire 1 v data_in [19] $end
$var wire 1 w data_in [20] $end
$var wire 1 x data_in [21] $end
$var wire 1 y data_in [22] $end
$var wire 1 z data_in [23] $end
$var wire 1 { data_in [24] $end
$var wire 1 | data_in [25] $end
$var wire 1 } data_in [26] $end
$var wire 1 ~ data_in [27] $end
$var wire 1 !! data_in [28] $end
$var wire 1 "! data_in [29] $end
$var wire 1 #! data_in [30] $end
$var wire 1 $! data_in [31] $end
$var wire 1 %! data_in [32] $end
$var wire 1 &! data_in [33] $end
$var wire 1 '! data_in [34] $end
$var wire 1 (! data_in [35] $end
$var wire 1 )! data_in [36] $end
$var wire 1 *! data_in [37] $end
$var wire 1 +! data_in [38] $end
$var wire 1 ,! data_in [39] $end
$var wire 1 -! data_in [40] $end
$var wire 1 .! data_in [41] $end
$var wire 1 /! data_in [42] $end
$var wire 1 0! data_in [43] $end
$var wire 1 1! data_in [44] $end
$var wire 1 2! data_in [45] $end
$var wire 1 3! data_in [46] $end
$var wire 1 4! data_in [47] $end
$var wire 1 5! data_in [48] $end
$var wire 1 6! data_in [49] $end
$var wire 1 7! data_in [50] $end
$var wire 1 8! data_in [51] $end
$var wire 1 9! data_in [52] $end
$var wire 1 :! data_in [53] $end
$var wire 1 ;! data_in [54] $end
$var wire 1 <! data_in [55] $end
$var wire 1 =! data_in [56] $end
$var wire 1 >! data_in [57] $end
$var wire 1 ?! data_in [58] $end
$var wire 1 @! data_in [59] $end
$var wire 1 A! data_in [60] $end
$var wire 1 B! data_in [61] $end
$var wire 1 C! data_in [62] $end
$var wire 1 D! data_in [63] $end
$var wire 1 E! funct_select $end
$var wire 1 F! lddata $end
$var wire 1 G! core_busy $end
$var wire 1 H! des_out_rdy $end
$var wire 1 I! data_out [0] $end
$var wire 1 J! data_out [1] $end
$var wire 1 K! data_out [2] $end
$var wire 1 L! data_out [3] $end
$var wire 1 M! data_out [4] $end
$var wire 1 N! data_out [5] $end
$var wire 1 O! data_out [6] $end
$var wire 1 P! data_out [7] $end
$var wire 1 Q! data_out [8] $end
$var wire 1 R! data_out [9] $end
$var wire 1 S! data_out [10] $end
$var wire 1 T! data_out [11] $end
$var wire 1 U! data_out [12] $end
$var wire 1 V! data_out [13] $end
$var wire 1 W! data_out [14] $end
$var wire 1 X! data_out [15] $end
$var wire 1 Y! data_out [16] $end
$var wire 1 Z! data_out [17] $end
$var wire 1 [! data_out [18] $end
$var wire 1 \! data_out [19] $end
$var wire 1 ]! data_out [20] $end
$var wire 1 ^! data_out [21] $end
$var wire 1 _! data_out [22] $end
$var wire 1 `! data_out [23] $end
$var wire 1 a! data_out [24] $end
$var wire 1 b! data_out [25] $end
$var wire 1 c! data_out [26] $end
$var wire 1 d! data_out [27] $end
$var wire 1 e! data_out [28] $end
$var wire 1 f! data_out [29] $end
$var wire 1 g! data_out [30] $end
$var wire 1 h! data_out [31] $end
$var wire 1 i! data_out [32] $end
$var wire 1 j! data_out [33] $end
$var wire 1 k! data_out [34] $end
$var wire 1 l! data_out [35] $end
$var wire 1 m! data_out [36] $end
$var wire 1 n! data_out [37] $end
$var wire 1 o! data_out [38] $end
$var wire 1 p! data_out [39] $end
$var wire 1 q! data_out [40] $end
$var wire 1 r! data_out [41] $end
$var wire 1 s! data_out [42] $end
$var wire 1 t! data_out [43] $end
$var wire 1 u! data_out [44] $end
$var wire 1 v! data_out [45] $end
$var wire 1 w! data_out [46] $end
$var wire 1 x! data_out [47] $end
$var wire 1 y! data_out [48] $end
$var wire 1 z! data_out [49] $end
$var wire 1 {! data_out [50] $end
$var wire 1 |! data_out [51] $end
$var wire 1 }! data_out [52] $end
$var wire 1 ~! data_out [53] $end
$var wire 1 !" data_out [54] $end
$var wire 1 "" data_out [55] $end
$var wire 1 #" data_out [56] $end
$var wire 1 $" data_out [57] $end
$var wire 1 %" data_out [58] $end
$var wire 1 &" data_out [59] $end
$var wire 1 '" data_out [60] $end
$var wire 1 (" data_out [61] $end
$var wire 1 )" data_out [62] $end
$var wire 1 *" data_out [63] $end

$scope module Inst_des_cipher_top_dut $end
$var wire 1 # key_in [0] $end
$var wire 1 $ key_in [1] $end
$var wire 1 % key_in [2] $end
$var wire 1 & key_in [3] $end
$var wire 1 ' key_in [4] $end
$var wire 1 ( key_in [5] $end
$var wire 1 ) key_in [6] $end
$var wire 1 * key_in [7] $end
$var wire 1 + key_in [8] $end
$var wire 1 , key_in [9] $end
$var wire 1 - key_in [10] $end
$var wire 1 . key_in [11] $end
$var wire 1 / key_in [12] $end
$var wire 1 0 key_in [13] $end
$var wire 1 1 key_in [14] $end
$var wire 1 2 key_in [15] $end
$var wire 1 3 key_in [16] $end
$var wire 1 4 key_in [17] $end
$var wire 1 5 key_in [18] $end
$var wire 1 6 key_in [19] $end
$var wire 1 7 key_in [20] $end
$var wire 1 8 key_in [21] $end
$var wire 1 9 key_in [22] $end
$var wire 1 : key_in [23] $end
$var wire 1 ; key_in [24] $end
$var wire 1 < key_in [25] $end
$var wire 1 = key_in [26] $end
$var wire 1 > key_in [27] $end
$var wire 1 ? key_in [28] $end
$var wire 1 @ key_in [29] $end
$var wire 1 A key_in [30] $end
$var wire 1 B key_in [31] $end
$var wire 1 C key_in [32] $end
$var wire 1 D key_in [33] $end
$var wire 1 E key_in [34] $end
$var wire 1 F key_in [35] $end
$var wire 1 G key_in [36] $end
$var wire 1 H key_in [37] $end
$var wire 1 I key_in [38] $end
$var wire 1 J key_in [39] $end
$var wire 1 K key_in [40] $end
$var wire 1 L key_in [41] $end
$var wire 1 M key_in [42] $end
$var wire 1 N key_in [43] $end
$var wire 1 O key_in [44] $end
$var wire 1 P key_in [45] $end
$var wire 1 Q key_in [46] $end
$var wire 1 R key_in [47] $end
$var wire 1 S key_in [48] $end
$var wire 1 T key_in [49] $end
$var wire 1 U key_in [50] $end
$var wire 1 V key_in [51] $end
$var wire 1 W key_in [52] $end
$var wire 1 X key_in [53] $end
$var wire 1 Y key_in [54] $end
$var wire 1 Z key_in [55] $end
$var wire 1 [ key_in [56] $end
$var wire 1 \ key_in [57] $end
$var wire 1 ] key_in [58] $end
$var wire 1 ^ key_in [59] $end
$var wire 1 _ key_in [60] $end
$var wire 1 ` key_in [61] $end
$var wire 1 a key_in [62] $end
$var wire 1 b key_in [63] $end
$var wire 1 c data_in [0] $end
$var wire 1 d data_in [1] $end
$var wire 1 e data_in [2] $end
$var wire 1 f data_in [3] $end
$var wire 1 g data_in [4] $end
$var wire 1 h data_in [5] $end
$var wire 1 i data_in [6] $end
$var wire 1 j data_in [7] $end
$var wire 1 k data_in [8] $end
$var wire 1 l data_in [9] $end
$var wire 1 m data_in [10] $end
$var wire 1 n data_in [11] $end
$var wire 1 o data_in [12] $end
$var wire 1 p data_in [13] $end
$var wire 1 q data_in [14] $end
$var wire 1 r data_in [15] $end
$var wire 1 s data_in [16] $end
$var wire 1 t data_in [17] $end
$var wire 1 u data_in [18] $end
$var wire 1 v data_in [19] $end
$var wire 1 w data_in [20] $end
$var wire 1 x data_in [21] $end
$var wire 1 y data_in [22] $end
$var wire 1 z data_in [23] $end
$var wire 1 { data_in [24] $end
$var wire 1 | data_in [25] $end
$var wire 1 } data_in [26] $end
$var wire 1 ~ data_in [27] $end
$var wire 1 !! data_in [28] $end
$var wire 1 "! data_in [29] $end
$var wire 1 #! data_in [30] $end
$var wire 1 $! data_in [31] $end
$var wire 1 %! data_in [32] $end
$var wire 1 &! data_in [33] $end
$var wire 1 '! data_in [34] $end
$var wire 1 (! data_in [35] $end
$var wire 1 )! data_in [36] $end
$var wire 1 *! data_in [37] $end
$var wire 1 +! data_in [38] $end
$var wire 1 ,! data_in [39] $end
$var wire 1 -! data_in [40] $end
$var wire 1 .! data_in [41] $end
$var wire 1 /! data_in [42] $end
$var wire 1 0! data_in [43] $end
$var wire 1 1! data_in [44] $end
$var wire 1 2! data_in [45] $end
$var wire 1 3! data_in [46] $end
$var wire 1 4! data_in [47] $end
$var wire 1 5! data_in [48] $end
$var wire 1 6! data_in [49] $end
$var wire 1 7! data_in [50] $end
$var wire 1 8! data_in [51] $end
$var wire 1 9! data_in [52] $end
$var wire 1 :! data_in [53] $end
$var wire 1 ;! data_in [54] $end
$var wire 1 <! data_in [55] $end
$var wire 1 =! data_in [56] $end
$var wire 1 >! data_in [57] $end
$var wire 1 ?! data_in [58] $end
$var wire 1 @! data_in [59] $end
$var wire 1 A! data_in [60] $end
$var wire 1 B! data_in [61] $end
$var wire 1 C! data_in [62] $end
$var wire 1 D! data_in [63] $end
$var wire 1 I! data_out [0] $end
$var wire 1 J! data_out [1] $end
$var wire 1 K! data_out [2] $end
$var wire 1 L! data_out [3] $end
$var wire 1 M! data_out [4] $end
$var wire 1 N! data_out [5] $end
$var wire 1 O! data_out [6] $end
$var wire 1 P! data_out [7] $end
$var wire 1 Q! data_out [8] $end
$var wire 1 R! data_out [9] $end
$var wire 1 S! data_out [10] $end
$var wire 1 T! data_out [11] $end
$var wire 1 U! data_out [12] $end
$var wire 1 V! data_out [13] $end
$var wire 1 W! data_out [14] $end
$var wire 1 X! data_out [15] $end
$var wire 1 Y! data_out [16] $end
$var wire 1 Z! data_out [17] $end
$var wire 1 [! data_out [18] $end
$var wire 1 \! data_out [19] $end
$var wire 1 ]! data_out [20] $end
$var wire 1 ^! data_out [21] $end
$var wire 1 _! data_out [22] $end
$var wire 1 `! data_out [23] $end
$var wire 1 a! data_out [24] $end
$var wire 1 b! data_out [25] $end
$var wire 1 c! data_out [26] $end
$var wire 1 d! data_out [27] $end
$var wire 1 e! data_out [28] $end
$var wire 1 f! data_out [29] $end
$var wire 1 g! data_out [30] $end
$var wire 1 h! data_out [31] $end
$var wire 1 i! data_out [32] $end
$var wire 1 j! data_out [33] $end
$var wire 1 k! data_out [34] $end
$var wire 1 l! data_out [35] $end
$var wire 1 m! data_out [36] $end
$var wire 1 n! data_out [37] $end
$var wire 1 o! data_out [38] $end
$var wire 1 p! data_out [39] $end
$var wire 1 q! data_out [40] $end
$var wire 1 r! data_out [41] $end
$var wire 1 s! data_out [42] $end
$var wire 1 t! data_out [43] $end
$var wire 1 u! data_out [44] $end
$var wire 1 v! data_out [45] $end
$var wire 1 w! data_out [46] $end
$var wire 1 x! data_out [47] $end
$var wire 1 y! data_out [48] $end
$var wire 1 z! data_out [49] $end
$var wire 1 {! data_out [50] $end
$var wire 1 |! data_out [51] $end
$var wire 1 }! data_out [52] $end
$var wire 1 ~! data_out [53] $end
$var wire 1 !" data_out [54] $end
$var wire 1 "" data_out [55] $end
$var wire 1 #" data_out [56] $end
$var wire 1 $" data_out [57] $end
$var wire 1 %" data_out [58] $end
$var wire 1 &" data_out [59] $end
$var wire 1 '" data_out [60] $end
$var wire 1 (" data_out [61] $end
$var wire 1 )" data_out [62] $end
$var wire 1 *" data_out [63] $end
$var wire 1 +" key_select_internal [3] $end
$var wire 1 ," key_select_internal [2] $end
$var wire 1 -" key_select_internal [1] $end
$var wire 1 ." key_select_internal [0] $end
$var wire 1 /" key_round_internal [0] $end
$var wire 1 0" key_round_internal [1] $end
$var wire 1 1" key_round_internal [2] $end
$var wire 1 2" key_round_internal [3] $end
$var wire 1 3" key_round_internal [4] $end
$var wire 1 4" key_round_internal [5] $end
$var wire 1 5" key_round_internal [6] $end
$var wire 1 6" key_round_internal [7] $end
$var wire 1 7" key_round_internal [8] $end
$var wire 1 8" key_round_internal [9] $end
$var wire 1 9" key_round_internal [10] $end
$var wire 1 :" key_round_internal [11] $end
$var wire 1 ;" key_round_internal [12] $end
$var wire 1 <" key_round_internal [13] $end
$var wire 1 =" key_round_internal [14] $end
$var wire 1 >" key_round_internal [15] $end
$var wire 1 ?" key_round_internal [16] $end
$var wire 1 @" key_round_internal [17] $end
$var wire 1 A" key_round_internal [18] $end
$var wire 1 B" key_round_internal [19] $end
$var wire 1 C" key_round_internal [20] $end
$var wire 1 D" key_round_internal [21] $end
$var wire 1 E" key_round_internal [22] $end
$var wire 1 F" key_round_internal [23] $end
$var wire 1 G" key_round_internal [24] $end
$var wire 1 H" key_round_internal [25] $end
$var wire 1 I" key_round_internal [26] $end
$var wire 1 J" key_round_internal [27] $end
$var wire 1 K" key_round_internal [28] $end
$var wire 1 L" key_round_internal [29] $end
$var wire 1 M" key_round_internal [30] $end
$var wire 1 N" key_round_internal [31] $end
$var wire 1 O" key_round_internal [32] $end
$var wire 1 P" key_round_internal [33] $end
$var wire 1 Q" key_round_internal [34] $end
$var wire 1 R" key_round_internal [35] $end
$var wire 1 S" key_round_internal [36] $end
$var wire 1 T" key_round_internal [37] $end
$var wire 1 U" key_round_internal [38] $end
$var wire 1 V" key_round_internal [39] $end
$var wire 1 W" key_round_internal [40] $end
$var wire 1 X" key_round_internal [41] $end
$var wire 1 Y" key_round_internal [42] $end
$var wire 1 Z" key_round_internal [43] $end
$var wire 1 [" key_round_internal [44] $end
$var wire 1 \" key_round_internal [45] $end
$var wire 1 ]" key_round_internal [46] $end
$var wire 1 ^" key_round_internal [47] $end
$var wire 1 _" key_ready_internal $end
$var wire 1 `" data_in_internal [0] $end
$var wire 1 a" data_in_internal [1] $end
$var wire 1 b" data_in_internal [2] $end
$var wire 1 c" data_in_internal [3] $end
$var wire 1 d" data_in_internal [4] $end
$var wire 1 e" data_in_internal [5] $end
$var wire 1 f" data_in_internal [6] $end
$var wire 1 g" data_in_internal [7] $end
$var wire 1 h" data_in_internal [8] $end
$var wire 1 i" data_in_internal [9] $end
$var wire 1 j" data_in_internal [10] $end
$var wire 1 k" data_in_internal [11] $end
$var wire 1 l" data_in_internal [12] $end
$var wire 1 m" data_in_internal [13] $end
$var wire 1 n" data_in_internal [14] $end
$var wire 1 o" data_in_internal [15] $end
$var wire 1 p" data_in_internal [16] $end
$var wire 1 q" data_in_internal [17] $end
$var wire 1 r" data_in_internal [18] $end
$var wire 1 s" data_in_internal [19] $end
$var wire 1 t" data_in_internal [20] $end
$var wire 1 u" data_in_internal [21] $end
$var wire 1 v" data_in_internal [22] $end
$var wire 1 w" data_in_internal [23] $end
$var wire 1 x" data_in_internal [24] $end
$var wire 1 y" data_in_internal [25] $end
$var wire 1 z" data_in_internal [26] $end
$var wire 1 {" data_in_internal [27] $end
$var wire 1 |" data_in_internal [28] $end
$var wire 1 }" data_in_internal [29] $end
$var wire 1 ~" data_in_internal [30] $end
$var wire 1 !# data_in_internal [31] $end
$var wire 1 "# data_in_internal [32] $end
$var wire 1 ## data_in_internal [33] $end
$var wire 1 $# data_in_internal [34] $end
$var wire 1 %# data_in_internal [35] $end
$var wire 1 &# data_in_internal [36] $end
$var wire 1 '# data_in_internal [37] $end
$var wire 1 (# data_in_internal [38] $end
$var wire 1 )# data_in_internal [39] $end
$var wire 1 *# data_in_internal [40] $end
$var wire 1 +# data_in_internal [41] $end
$var wire 1 ,# data_in_internal [42] $end
$var wire 1 -# data_in_internal [43] $end
$var wire 1 .# data_in_internal [44] $end
$var wire 1 /# data_in_internal [45] $end
$var wire 1 0# data_in_internal [46] $end
$var wire 1 1# data_in_internal [47] $end
$var wire 1 2# data_in_internal [48] $end
$var wire 1 3# data_in_internal [49] $end
$var wire 1 4# data_in_internal [50] $end
$var wire 1 5# data_in_internal [51] $end
$var wire 1 6# data_in_internal [52] $end
$var wire 1 7# data_in_internal [53] $end
$var wire 1 8# data_in_internal [54] $end
$var wire 1 9# data_in_internal [55] $end
$var wire 1 :# data_in_internal [56] $end
$var wire 1 ;# data_in_internal [57] $end
$var wire 1 <# data_in_internal [58] $end
$var wire 1 =# data_in_internal [59] $end
$var wire 1 ># data_in_internal [60] $end
$var wire 1 ?# data_in_internal [61] $end
$var wire 1 @# data_in_internal [62] $end
$var wire 1 A# data_in_internal [63] $end
$var wire 1 B# data_ready_internal $end
$upscope $end
$upscope $end
$enddefinitions $end
#0
$dumpvars
x/"
x0"
x1"
x2"
x3"
x4"
x5"
x6"
x7"
x8"
x9"
x:"
x;"
x<"
x="
x>"
x?"
x@"
xA"
xB"
xC"
xD"
xE"
xF"
xG"
xH"
xI"
xJ"
xK"
xL"
xM"
xN"
xO"
xP"
xQ"
xR"
xS"
xT"
xU"
xV"
xW"
xX"
xY"
xZ"
x["
x\"
x]"
x^"
0!
1"
xE!
xF!
xG!
xH!
x_"
xB#
x#
x$
x%
x&
x'
x(
x)
x*
x+
x,
x-
x.
x/
x0
x1
x2
x3
x4
x5
x6
x7
x8
x9
x:
x;
x<
x=
x>
x?
x@
xA
xB
xC
xD
xE
xF
xG
xH
xI
xJ
xK
xL
xM
xN
xO
xP
xQ
xR
xS
xT
xU
xV
xW
xX
xY
xZ
x[
x\
x]
x^
x_
x`
xa
xb
xc
xd
xe
xf
xg
xh
xi
xj
xk
xl
xm
xn
xo
xp
xq
xr
xs
xt
xu
xv
xw
xx
xy
xz
x{
x|
x}
x~
x!!
x"!
x#!
x$!
x%!
x&!
x'!
x(!
x)!
x*!
x+!
x,!
x-!
x.!
x/!
x0!
x1!
x2!
x3!
x4!
x5!
x6!
x7!
x8!
x9!
x:!
x;!
x<!
x=!
x>!
x?!
x@!
xA!
xB!
xC!
xD!
xI!
xJ!
xK!
xL!
xM!
xN!
xO!
xP!
xQ!
xR!
xS!
xT!
xU!
xV!
xW!
xX!
xY!
xZ!
x[!
x\!
x]!
x^!
x_!
x`!
xa!
xb!
xc!
xd!
xe!
xf!
xg!
xh!
xi!
xj!
xk!
xl!
xm!
xn!
xo!
xp!
xq!
xr!
xs!
xt!
xu!
xv!
xw!
xx!
xy!
xz!
x{!
x|!
x}!
x~!
x!"
x""
x#"
x$"
x%"
x&"
x'"
x("
x)"
x*"
x+"
x,"
x-"
x."
x`"
xa"
xb"
xc"
xd"
xe"
xf"
xg"
xh"
xi"
xj"
xk"
xl"
xm"
xn"
xo"
xp"
xq"
xr"
xs"
xt"
xu"
xv"
xw"
xx"
xy"
xz"
x{"
x|"
x}"
x~"
x!#
x"#
x##
x$#
x%#
x&#
x'#
x(#
x)#
x*#
x+#
x,#
x-#
x.#
x/#
x0#
x1#
x2#
x3#
x4#
x5#
x6#
x7#
x8#
x9#
x:#
x;#
x<#
x=#
x>#
x?#
x@#
xA#
$end
#5
1!
0B#
0_"
0H!
0G!
#10
0!
1F!
1D!
0C!
0B!
1A!
1@!
1?!
1>!
0=!
0<!
0;!
1:!
09!
18!
17!
16!
05!
14!
03!
02!
11!
00!
1/!
1.!
0-!
0,!
1+!
1*!
0)!
1(!
1'!
1&!
0%!
1$!
0#!
0"!
1!!
0~
1}
1|
0{
0z
0y
1x
0w
1v
1u
1t
0s
1r
1q
0p
0o
0n
1m
1l
0k
1j
0i
0h
0g
0f
1e
1d
0c
1E!
0b
0a
1`
0_
0^
1]
1\
0[
0Z
1Y
0X
0W
1V
1U
1T
0S
1R
0Q
0P
0O
0N
1M
1L
0K
0J
1I
0H
1G
1F
1E
1D
0C
0B
1A
0@
1?
1>
1=
1<
0;
1:
09
08
17
06
15
14
03
02
01
10
1/
0.
1-
1,
0+
0*
1)
0(
0'
0&
1%
1$
0#
0"
#15
1!
1B#
1A#
0@#
0?#
1>#
1=#
1<#
1;#
0:#
09#
08#
17#
06#
15#
14#
13#
02#
11#
00#
0/#
1.#
0-#
1,#
1+#
0*#
0)#
1(#
1'#
0&#
1%#
1$#
1##
0"#
1!#
0~"
0}"
1|"
0{"
1z"
1y"
0x"
0w"
0v"
1u"
0t"
1s"
1r"
1q"
0p"
1o"
1n"
0m"
0l"
0k"
1j"
1i"
0h"
1g"
0f"
0e"
0d"
0c"
1b"
1a"
0`"
1_"
1^"
0]"
1\"
1["
0Z"
0Y"
1X"
0W"
0V"
0U"
1T"
0S"
1R"
1Q"
0P"
1O"
0N"
1M"
0L"
0K"
1J"
0I"
0H"
0G"
0F"
1E"
1D"
0C"
0B"
1A"
0@"
1?"
0>"
1="
1<"
1;"
1:"
19"
08"
17"
16"
05"
04"
03"
12"
11"
10"
1/"
#20
0!
#25
1!
#30
0!
#35
1!
0."
0-"
0,"
0+"
1G!
1]"
1Z"
0X"
0Q"
0O"
0M"
1K"
0J"
1I"
1H"
1C"
1@"
0?"
06"
02"
#40
0!
#45
1!
1."
0^"
0]"
0\"
0["
0Z"
1Y"
1W"
1V"
1O"
1M"
0H"
1G"
0C"
1B"
1?"
0;"
12"
#50
0!
#55
1!
0."
1-"
1^"
1]"
0W"
1U"
1S"
0R"
1Q"
1P"
0O"
0M"
0I"
0G"
0?"
09"
18"
14"
#60
0!
#65
1!
1."
0^"
0]"
1Z"
0Y"
0V"
0U"
0T"
0Q"
1M"
1L"
1J"
1I"
1H"
1>"
0<"
15"
02"
#70
0!
#75
1!
0."
0-"
1,"
1]"
1["
1X"
1V"
0S"
1N"
0M"
0L"
0K"
0J"
0I"
1G"
1F"
13"
00"
#80
0!
#85
1!
1."
0]"
0Z"
0X"
0V"
1U"
1R"
1Q"
0P"
1O"
1L"
0H"
0D"
1C"
07"
16"
#90
0!
#95
1!
0."
1-"
1\"
0["
1Y"
1X"
1T"
0Q"
0O"
0N"
0L"
1J"
1I"
1H"
0E"
1?"
#100
0!
#105
1!
1."
1]"
1["
0X"
1W"
0T"
1S"
0R"
1O"
1K"
0I"
0H"
0G"
0A"
1;"
12"
01"
#110
0!
#115
1!
0."
0-"
0,"
1+"
0]"
1V"
0U"
1T"
0S"
1Q"
1P"
0O"
0K"
0J"
1E"
0="
0:"
11"
0/"
#120
0!
#125
1!
1."
1^"
0["
0Y"
0V"
0T"
1S"
1R"
0P"
1K"
1I"
1G"
0E"
1D"
0@"
19"
#130
0!
#135
1!
0."
1-"
1]"
0\"
1Z"
1Y"
1U"
0S"
0R"
0Q"
1P"
1M"
0K"
1H"
1<"
08"
01"
#140
0!
#145
1!
1."
1["
0Z"
0Y"
0W"
1V"
1S"
0P"
1N"
1L"
1J"
0I"
0H"
0G"
1A"
0>"
10"
#150
0!
#155
1!
0."
0-"
1,"
0^"
0]"
0["
1Z"
1X"
0U"
0S"
1R"
0N"
1G"
0F"
0B"
17"
1/"
#160
0!
#165
1!
1."
1\"
0Z"
1Y"
1U"
0R"
1Q"
1O"
1N"
0M"
0L"
0J"
1H"
0G"
1E"
1="
06"
04"
#170
0!
#175
1!
0."
1-"
0\"
1["
0Y"
0X"
1W"
0V"
0U"
1T"
1S"
0N"
1J"
1I"
0?"
1:"
05"
11"
#180
0!
#185
1!
1."
1^"
1\"
1X"
0W"
0S"
1R"
1M"
0I"
0H"
0C"
1?"
16"
03"
#190
0!
#195
1!
1H!
0G!
0*"
0)"
1("
1'"
0&"
1%"
1$"
1#"
0""
1!"
0~!
1}!
0|!
0{!
0z!
0y!
1x!
0w!
0v!
0u!
1t!
1s!
0r!
0q!
1p!
0o!
0n!
1m!
0l!
1k!
1j!
0i!
0h!
1g!
1f!
0e!
0d!
0c!
1b!
1a!
1`!
0_!
0^!
1]!
1\!
0[!
0Z!
0Y!
1X!
0W!
0V!
0U!
1T!
0S!
0R!
1Q!
1P!
0O!
1N!
1M!
0L!
1K!
1J!
0I!
0."
0-"
0,"
0+"
1"
1]"
1Z"
0X"
0Q"
0O"
0M"
1K"
0J"
1I"
1H"
1C"
1@"
0?"
06"
02"
#200
0!
#205
1!
0D!
1B!
0@!
1=!
1;!
0:!
19!
08!
07!
06!
01!
10!
0.!
1,!
0+!
0*!
1)!
0(!
0$!
1#!
1"!
0!!
0}
1{
1z
0x
1w
0u
0t
0q
1n
0m
0l
1k
1h
1g
1b
1a
0`
1_
1Z
0V
0F
0A
0?
12
11
00
1*
1&
0"
0A#
1?#
0=#
1:#
18#
07#
16#
05#
04#
03#
0.#
1-#
0+#
1)#
0(#
0'#
1&#
0%#
0!#
1~"
1}"
0|"
0z"
1x"
1w"
0u"
1t"
0r"
0q"
0n"
1k"
0j"
0i"
1h"
1e"
1d"
0H!
0^"
0\"
0Z"
1W"
1V"
1S"
0R"
1L"
0C"
#210
0!
#215
1!
#220
0!
#225
1!
1G!
#230
0!
#235
1!
1."
0]"
0["
1Y"
0S"
1R"
1Q"
1O"
1M"
0K"
0I"
0H"
1B"
0;"
#240
0!
#245
1!
0."
1-"
1^"
1X"
0W"
1S"
0R"
0Q"
0O"
0M"
0L"
1K"
1I"
1H"
1G"
09"
18"
14"
#250
0!
#255
1!
1."
0^"
1]"
1["
1Z"
0Y"
0X"
0V"
1U"
0T"
1P"
1O"
1M"
0I"
0G"
0D"
1>"
0<"
15"
#260
0!
#265
1!
0."
0-"
1,"
0]"
1V"
0U"
1T"
0S"
1R"
0O"
1N"
0M"
1L"
0K"
1J"
1F"
13"
00"
#270
0!
#275
1!
1."
0Z"
1Y"
1X"
0V"
0T"
0P"
0L"
1K"
0J"
0H"
1G"
1C"
0A"
07"
16"
#280
0!
#285
1!
0."
1-"
1\"
0["
0X"
1U"
1S"
1Q"
1P"
1O"
0N"
0K"
1H"
0E"
1?"
0/"
#290
0!
#295
1!
1."
1["
1Z"
1W"
1T"
0R"
0Q"
0P"
0O"
1J"
1I"
0H"
0G"
0="
1;"
12"
01"
#300
0!
#305
1!
0."
0-"
0,"
1+"
0["
0Y"
0W"
0U"
0S"
1R"
1Q"
1P"
1M"
0J"
0I"
1G"
0:"
#310
0!
#315
1!
1."
0Z"
1Y"
1W"
1V"
1U"
0T"
0R"
0P"
1N"
0M"
1K"
1I"
1D"
0@"
19"
#320
0!
#325
1!
0."
1-"
1^"
1]"
0\"
0Y"
0V"
1S"
0Q"
1P"
0N"
0K"
1J"
0B"
1<"
08"
#330
0!
#335
1!
1."
1\"
1Z"
0W"
0S"
0P"
1M"
1L"
0I"
1H"
0G"
1A"
0>"
04"
10"
#340
0!
#345
1!
0."
0-"
1,"
0^"
0]"
0\"
1["
0Z"
1X"
1W"
1V"
0U"
1Q"
1N"
0H"
1G"
0F"
17"
05"
1/"
#350
0!
#355
1!
1."
1^"
0["
0W"
1U"
1R"
1O"
0N"
0M"
0L"
0J"
1I"
0G"
1E"
1="
06"
03"
#360
0!
#365
1!
0."
1-"
0^"
1]"
1\"
1Y"
0X"
0V"
0U"
1T"
0R"
1M"
1J"
1H"
0C"
0?"
1:"
11"
#370
0!
#375
1!
1."
1^"
1["
0Y"
1X"
1V"
0T"
1R"
0Q"
1P"
0J"
0I"
0H"
#380
0!
